{
    "name": "timer",
    "master": {
        "name": "$host_name$",
        "ip": "$host_ip$"
    },
    "log_level": "debug",
    "development": false,
    "one_shot": false,
    "devices" : [],
    "watch": {
        "intervall": 400,
        "topic": "sl/timer/status/5min"
    }
}
